Notes and Materials for Data Computing
…
Having established this, the question is whether the analysis of all 13 million cases can be done in a reasonable amount of time. Let’s try tabulating the complaint types in the 1-million case data table:

system.time(Results <- 
              SmallData %>% 
              group_by(complaint) %>% 
              tally() %>%
              arrange(desc(n)))

##    user  system elapsed 
##   0.051   0.005   0.057

Results

## # A tibble: 215 × 2
##                   complaint      n
##                       <chr>  <int>
## 1                   HEATING 179549
## 2       Noise - Residential  77834
## 3          Street Condition  56494
## 4                  PLUMBING  47044
## 5    Street Light Condition  46724
## 6      GENERAL CONSTRUCTION  39670
## 7          Blocked Driveway  38569
## 8           PAINT - PLASTER  28717
## 9    DOF Literature Request  27410
## 10 Traffic Signal Condition  27322
## # ... with 205 more rows
…
## 40015896 bytes

system.time(Results <- 
              Complaints_by_time %>%
              group_by(hour_of_day) %>%
              tally()
)

##    user  system elapsed 
##   0.030   0.006   0.036

Results

## # A tibble: 24 × 2
##    hour_of_day      n
##          <int>  <int>
## 1            0 425165
## 2            1  13180
## 3            2   9141
## 4            3   5970
## 5            4   4765
## 6            5   4783
## 7            6   7425
## 8            7  15779
## 9            8  26840
## 10           9  37776
## # ... with 14 more rows
…
