Notes and Materials for Data Computing
…
## Source: local data frame [2 x 4]
## Groups: sex [2]
## 
##    name   sex count  year
##   <chr> <chr> <int> <int>
## 1 Linda     F 99674  1947
## 2 James     M 94758  1947

Filter() needs a criterion. The criterion count == max( count ) (with the double equals sign ==) passes through the case where the value of count matches the largest value of count. That will be the biggest case.

BabyNames %>% 
  group_by(sex) %>%
  filter(count > 0.90 * max(count))

## Source: local data frame [28 x 4]
## Groups: sex [2]
## 
##      name   sex count  year
##     <chr> <chr> <int> <int>
## 1   James     M 87428  1946
## 2   Linda     F 99674  1947
## 3   James     M 94758  1947
## 4  Robert     M 91652  1947
## 5    John     M 88318  1947
## 6   Linda     F 96210  1948
## 7   James     M 88610  1948
## 8  Robert     M 85492  1948
## 9   Linda     F 90994  1949
## 10  James     M 86779  1949
## # ... with 18 more rows
…
